…
#### 3.2.7 Create a Calculated Column: "ride_duration_min"

In the "**alldata**" data frame, the information about the starting and ending time for each trip was available. It would be useful to extract the information about the duration of each trip from this available information and store it in a new column. 

However, before creating a column containing the ride durations, the "**impossible values**" in the existing date-time columns should be considered.

Logically, all the values in the "**started_at**" column must be less than their counterparts in the "**ended_at**" column. In this case, if any observation went in the opposite direction, a simple value swapping between the two columns would be applied.

The following code checked if there are any so-called "**impossible values**":

```{r Check if there are any "Impossible Values", message=FALSE, warning=FALSE, eval=FALSE}
#Code chunk 3.2.7.1: Checking for "Impossible Values"

> alldata %>% filter(started_at > ended_at)
# A tibble: 3,284 x 13
   ride_id     rideable_type started_at          ended_at           
   <chr>       <fct>         <dttm>              <dttm>             
 1 3A47A9240B~ classic_bike  2021-09-29 14:52:22 2021-09-29 14:52:09
 2 FA44EBC79C~ electric_bike 2021-09-28 17:43:33 2021-09-28 17:43:31
 3 D5E5F806D0~ classic_bike  2021-09-01 18:42:09 2021-09-01 18:41:40
 4 2EDC266B1A~ classic_bike  2021-09-04 09:42:26 2021-09-04 09:41:54
 5 137BEA38C2~ classic_bike  2021-09-02 18:38:19 2021-09-02 18:37:48
 6 7F7679196D~ classic_bike  2021-09-01 06:55:19 2021-09-01 06:55:11
 7 D4A976387C~ electric_bike 2021-09-04 17:20:37 2021-09-04 17:20:35
 8 3E68DE6382~ electric_bike 2021-09-29 17:44:02 2021-09-29 17:40:51
 9 88BA6AC732~ classic_bike  2021-09-29 15:26:23 2021-09-29 15:26:22
10 6ACD4446FA~ electric_bike 2021-09-29 17:32:54 2021-09-29 17:28:32
# ... with 3,274 more rows, and 9 more variables:
#   start_station_name <chr>, start_station_id <chr>,
#   end_station_name <chr>, end_station_id <chr>, start_lat <dbl>,
#   start_lng <dbl>, end_lat <dbl>, end_lng <dbl>,
#   member_casual <fct>
…
